<?xml version="1.0" encoding="utf-8"?>
<!-- Generator: Adobe Illustrator 22.1.0, SVG Export Plug-In . SVG Version: 6.00 Build 0)  -->
<svg version="1.1" id="Layer_1" xmlns="http://www.w3.org/2000/svg" xmlns:xlink="http://www.w3.org/1999/xlink" x="0px" y="0px"
	 viewBox="0 0 16.1 16.1" style="enable-background:new 0 0 16.1 16.1;" xml:space="preserve">
<style type="text/css">
	.st0{fill:#990D0D;}
	.st1{fill:#FFFFFF;}
</style>
<g>
	<g>
		<path class="st0" d="M8.1,0c-4.4,0-8,3.6-8,8c0,4.4,3.6,8,8,8c1.6,0,3.2-0.5,4.4-1.3l-1.4-1.5c-0.9,0.5-1.9,0.8-3,0.8
			c-3.3,0-6-2.7-6-6c0-3.3,2.7-6,6-6s6,2.7,6,6c0,1.4-0.5,2.7-1.3,3.7l1.4,1.5c1.2-1.4,2-3.2,2-5.2C16.1,3.6,12.5,0,8.1,0z"/>
	</g>
	<circle class="st1" cx="8.1" cy="8.1" r="3.7"/>
	<circle class="st1" cx="14.1" cy="14.9" r="0.9"/>
</g>
</svg>
