<?xml version="1.0" encoding="utf-8"?>
<!-- Generator: Adobe Illustrator 22.1.0, SVG Export Plug-In . SVG Version: 6.00 Build 0)  -->
<svg version="1.1" id="Layer_1" xmlns="http://www.w3.org/2000/svg" xmlns:xlink="http://www.w3.org/1999/xlink" x="0px" y="0px"
	 viewBox="0 0 13.3 13.3" style="enable-background:new 0 0 13.3 13.3;" xml:space="preserve">
<style type="text/css">
	.st0{fill:#FFFFFF;}
	.st1{fill:#990D0D;}
	.st2{fill:#D21E18;}
</style>
<path class="st0" d="M11.6,13.3H1.7c-0.9,0-1.7-0.8-1.7-1.7V1.7C0.1,0.8,0.8,0,1.7,0h9.9c0.9,0,1.7,0.8,1.7,1.7v9.9
	C13.3,12.5,12.5,13.3,11.6,13.3z"/>
<path class="st1" d="M13.3,1.7v1.9H0.1V1.7C0.1,0.8,0.8,0,1.7,0h9.8C12.5,0,13.3,0.8,13.3,1.7z"/>
<g>
	<path class="st2" d="M6.7,5.3L7.4,7l1.8,0.2c0.1,0,0.2,0.2,0.1,0.2L7.9,8.6l0.4,1.8c0,0.1-0.1,0.2-0.2,0.2L6.6,9.5L5,10.5
		c-0.1,0.1-0.2,0-0.2-0.2l0.4-1.8L3.9,7.4C3.8,7.3,3.8,7.1,4,7.1L5.8,7l0.7-1.7C6.5,5.2,6.7,5.2,6.7,5.3z"/>
</g>
</svg>
